{
  "project_info": {
    "project_number": "696150145786",
    "firebase_url": "https://vamosysdrs-c5592.firebaseio.com",
    "project_id": "vamosysdrs-c5592",
    "storage_bucket": "vamosysdrs-c5592.appspot.com"
  },
  "client": [
    {
      "client_info": {
        "mobilesdk_app_id": "1:696150145786:android:c045bead5f0e04f592a743",
        "android_client_info": {
          "package_name": "com.vamosys.drs.driver"
        }
      },
      "oauth_client": [
        {
          "client_id": "696150145786-klnlg394goe7cmph6mt8a3pk2d8mh47f.apps.googleusercontent.com",
          "client_type": 1,
          "android_info": {
            "package_name": "com.vamosys.drs.driver",
            "certificate_hash": "4b22b856d739f3e220a131230cc41498fece6160"
          }
        },
        {
          "client_id": "696150145786-o9sgbjbn0g5b7io4ns4mnnsqfpthnlgv.apps.googleusercontent.com",
          "client_type": 3
        }
      ],
      "api_key": [
        {
          "current_key": "AIzaSyBQBhfQUHdDgAbwFPixwSv5bBEWE3KlNkQ"
        }
      ],
      "services": {
        "appinvite_service": {
          "other_platform_oauth_client": [
            {
              "client_id": "696150145786-o9sgbjbn0g5b7io4ns4mnnsqfpthnlgv.apps.googleusercontent.com",
              "client_type": 3
            }
          ]
        }
      }
    }
  ],
  "configuration_version": "1"
}